[
  {
    "name": "THRILLER"
  },
  {
    "name": "COMEDY"
  },
  {
    "name": "ADVENTURE"
  },
  {
    "name": "SUPERHERO"
  },
  {
    "name": "DRAMA"
  },
  {
    "name": "WESTERN"
  },
  {
    "name": "HORROR"
  },
  {
    "name": "ANIMATION"
  }
]